{
  "page_size": 1,
  "page": 2,
  "total_pages": 10,
  "total_items": 25,
  "_embedded": {
    "template_fragments": [
      {
        "template_fragment_id": "c70f446e-997a-4313-a081-60a02a31dc19",
        "channel": "sms",
        "locale": "en_US",
        "text": "Text content of the template. May contain 4 reserved variables: `${code}`, `${brand}`, `${time-limit}` and `${time-limit-unit}`",
        "date_updated": "2023-08-30T15:20:15.17865735Z",
        "date_created": "2021-08-30T20:12:15.17865735Z",
        "_links": {
          "self": {
            "href": "https://api.nexmo.com/v2/verify/templates/8f35a1a7-eb2f-4552-8fdf-fffdaee41bc9/template_fragments/c70f446e-997a-4313-a081-60a02a31dc19"
          },
          "template": {
            "href": "https://api.nexmo.com/v2/verify/templates/8f35a1a7-eb2f-4552-8fdf-fffdaee41bc9"
          }
        }
      }
    ]
  },
  "_links": {
    "self": {
        "href": "https://api.nexmo.com/v2/verify/templates/c70f446e-997a-4313-a081-60a02a31dc19/template_fragments?page=2"
    },
    "prev": {
      "href": "https://api.nexmo.com/v2/verify/templates/c70f446e-997a-4313-a081-60a02a31dc19/templates_fragments?page=1"
    },
    "last": {
      "href": "https://api.nexmo.com/v2/verify/templates/c70f446e-997a-4313-a081-60a02a31dc19/templates_fragments?page=5"
    }
  }
}